module github.com/turt2live/matrix-media-repo

go 1.16

require (
	github.com/DavidHuie/gomigrate v0.0.0-20190826182718-4adc4b3de142
	github.com/Jeffail/tunny v0.0.0-20210126202424-1b37d6cb867a
	github.com/PuerkitoBio/goquery v1.6.1
	github.com/ajstarks/svgo v0.0.0-20200725142600-7a3c8b57fecb // indirect
	github.com/alioygur/is v1.0.3
	github.com/andybalholm/cascadia v1.2.0 // indirect
	github.com/bep/debounce v1.2.0
	github.com/buckket/go-blurhash v1.1.0
	github.com/cenk/backoff v2.2.1+incompatible // indirect
	github.com/cupcake/sigil v0.0.0-20131127230922-6bf9722f2ae8
	github.com/dhowden/tag v0.0.0-20201120070457-d52dcb253c63
	github.com/didip/tollbooth v4.0.2+incompatible
	github.com/disintegration/imaging v1.6.2
	github.com/djherbis/stream v1.3.1
	github.com/dsoprea/go-exif/v3 v3.0.0-20210131231135-d154f10435cc
	github.com/dsoprea/go-logging v0.0.0-20200710184922-b02d349568dd // indirect
	github.com/dustin/go-humanize v1.0.0
	github.com/dyatlov/go-oembed v0.0.0-20191103150536-a57c85b3b37c
	github.com/dyatlov/go-opengraph v0.0.0-20210112100619-dae8665a5b09
	github.com/facebookgo/clock v0.0.0-20150410010913-600d898af40a // indirect
	github.com/faiface/beep v1.0.2
	github.com/fastly/go-utils v0.0.0-20180712184237-d95a45783239 // indirect
	github.com/fatih/color v1.10.0 // indirect
	github.com/fogleman/gg v1.3.0
	github.com/fsnotify/fsnotify v1.4.9
	github.com/gabriel-vasile/mimetype v1.1.2
	github.com/getsentry/sentry-go v0.10.0
	github.com/go-redis/redis/v8 v8.7.1
	github.com/go-sql-driver/mysql v1.5.0 // indirect
	github.com/golang/freetype v0.0.0-20170609003504-e2365dfdc4a0
	github.com/golang/snappy v0.0.1 // indirect
	github.com/gorilla/mux v1.8.0
	github.com/hashicorp/go-hclog v0.15.0
	github.com/hashicorp/go-plugin v1.4.0
	github.com/hashicorp/yamux v0.0.0-20200609203250-aecfd211c9ce // indirect
	github.com/ipfs/go-cid v0.0.7
	github.com/ipfs/go-ipfs v0.8.0
	github.com/ipfs/go-ipfs-api v0.2.0
	github.com/ipfs/go-ipfs-config v0.12.0
	github.com/ipfs/go-ipfs-files v0.0.8
	github.com/ipfs/interface-go-ipfs-core v0.4.0
	github.com/jdeng/goheif v0.0.0-20200323230657-a0d6a8b3e68f
	github.com/jehiah/go-strftime v0.0.0-20171201141054-1d33003b3869 // indirect
	github.com/jonboulle/clockwork v0.3.0 // indirect
	github.com/k3a/html2text v1.0.7
	github.com/kettek/apng v0.0.0-20191108220231-414630eed80f
	github.com/lestrrat/go-envload v0.0.0-20180220120943-6ed08b54a570 // indirect
	github.com/lestrrat/go-file-rotatelogs v0.0.0-20180223000712-d3151e2a480f
	github.com/lestrrat/go-strftime v0.0.0-20180220042222-ba3bf9c1d042 // indirect
	github.com/lib/pq v1.10.0
	github.com/magefile/mage v1.11.0 // indirect
	github.com/mattn/go-sqlite3 v2.0.3+incompatible // indirect
	github.com/minio/md5-simd v1.1.2 // indirect
	github.com/minio/minio-go/v6 v6.0.57
	github.com/minio/sha256-simd v1.0.0 // indirect
	github.com/mitchellh/go-testing-interface v1.14.1 // indirect
	github.com/oklog/run v1.1.0 // indirect
	github.com/olebedev/emitter v0.0.0-20190110104742-e8d1457e6aee
	github.com/patrickmn/go-cache v2.1.0+incompatible
	github.com/peterbourgon/g2s v0.0.0-20170223122336-d4e7ad98afea // indirect
	github.com/pkg/errors v0.9.1
	github.com/prometheus/client_golang v1.13.0
	github.com/rifflock/lfshook v0.0.0-20180920164130-b9218ef580f5
	github.com/rubyist/circuitbreaker v2.2.1+incompatible
	github.com/ryanuber/go-glob v1.0.0
	github.com/saintfish/chardet v0.0.0-20120816061221-3af4cd4741ca
	github.com/sebest/xff v0.0.0-20210106013422-671bd2870b3a
	github.com/sirupsen/logrus v1.8.0
	github.com/tebeka/strftime v0.1.3 // indirect
	golang.org/x/crypto v0.0.0-20210220033148-5ea612d1eb83
	golang.org/x/image v0.0.0-20210220032944-ac19c3e999fb
	golang.org/x/net v0.0.0-20220225172249-27dd8689420f
	golang.org/x/time v0.0.0-20210220033141-f8bda1e9f3ba // indirect
	google.golang.org/genproto v0.0.0-20210303154014-9728d6b83eeb // indirect
	google.golang.org/grpc v1.36.0 // indirect
	gopkg.in/ini.v1 v1.62.0 // indirect
	gopkg.in/yaml.v2 v2.4.0
)
